Case 1: wavelength 355nm
Number of data points: 1005 
(Pressure,  temperature, dewpoint, particle extinction coefficient (1/m),lidar ratio (sr), depolarization ratio, altitude (m))



  1013.00     .00   -9.13 .1100E-02   28.00   .00      7.50


  1011.10    -.10   -9.27 .1100E-02   28.00   .00     22.50


  1009.20    -.20   -9.36 .1100E-02   28.00   .00     37.50


  1007.31    -.29   -9.45 .1100E-02   28.00   .00     52.50


  1005.42    -.39   -9.54 .1100E-02   28.00   .00     67.50


  1003.53    -.49   -9.63 .1100E-02   28.00   .00     82.50


  1001.65    -.58   -9.72 .1100E-02   28.00   .00     97.50


   999.77    -.68   -9.81 .1100E-02   28.00   .00    112.50


   997.89    -.78   -9.90 .1100E-02   28.00   .00    127.50


   996.01    -.88   -9.99 .1100E-02   28.00   .00    142.50


   994.14    -.98  -10.08 .1100E-02   28.00   .00    157.50


   992.27   -1.07  -10.17 .1100E-02   28.00   .00    172.50


   990.40   -1.17  -10.26 .1100E-02   28.00   .00    187.50


   988.54   -1.27  -10.35 .1100E-02   28.00   .00    202.50


   986.67   -1.36  -10.44 .1100E-02   28.00   .00    217.50


   984.82   -1.46  -10.53 .1100E-02   28.00   .00    232.50


   982.96   -1.56  -10.62 .1100E-02   28.00   .00    247.50


   981.11   -1.66  -10.71 .1100E-02   28.00   .00    262.50


   979.26   -1.76  -10.80 .1100E-02   28.00   .00    277.50


   977.41   -1.85  -10.89 .1100E-02   28.00   .00    292.50


   975.56   -1.95  -10.98 .1100E-02   28.00   .00    307.50


   973.72   -2.05  -11.08 .1100E-02   28.00   .00    322.50


   971.88   -2.15  -11.17 .1100E-02   28.00   .00    337.50


   970.05   -2.24  -11.26 .1100E-02   28.00   .00    352.50


   968.21   -2.34  -11.35 .1100E-02   28.00   .00    367.50


   966.38   -2.44  -11.44 .1100E-02   28.00   .00    382.50


   964.55   -2.54  -11.53 .1100E-02   28.00   .00    397.50


   962.73   -2.63  -11.62 .1100E-02   28.00   .00    412.50


   960.91   -2.73  -11.71 .1100E-02   28.00   .00    427.50


   959.09   -2.83  -11.80 .1100E-02   28.00   .00    442.50


   957.27   -2.92  -11.89 .1100E-02   28.00   .00    457.50


   955.46   -3.02  -11.98 .1100E-02   28.00   .00    472.50


   953.64   -3.12  -12.07 .1100E-02   28.00   .00    487.50


   951.84   -3.22  -12.16 .1100E-02   28.00   .00    502.50


   950.03   -3.32  -12.25 .1100E-02   28.00   .00    517.50


   948.23   -3.41  -12.34 .1100E-02   28.00   .00    532.50


   946.43   -3.51  -12.43 .1100E-02   28.00   .00    547.50


   944.63   -3.61  -12.52 .1100E-02   28.00   .00    562.50


   942.84   -3.71  -12.61 .1100E-02   28.00   .00    577.50


   941.04   -3.80  -12.70 .1100E-02   28.00   .00    592.50


   939.26   -3.90  -12.79 .1100E-02   28.00   .00    607.50


   937.47   -4.00  -12.88 .1100E-02   28.00   .00    622.50


   935.69   -4.10  -12.97 .1100E-02   28.00   .00    637.50


   933.90   -4.19  -13.06 .1100E-02   28.00   .00    652.50


   932.13   -4.29  -13.15 .1100E-02   28.00   .00    667.50


   930.35   -4.39  -13.25 .1100E-02   28.00   .00    682.50


   928.58   -4.48  -13.34 .1100E-02   28.00   .00    697.50


   926.81   -4.58  -13.43 .1100E-02   28.00   .00    712.50


   925.04   -4.68  -13.52 .1100E-02   28.00   .00    727.50


   923.28   -4.78  -13.61 .1100E-02   28.00   .00    742.50


   921.52   -4.88  -13.70 .1100E-02   28.00   .00    757.50


   919.76   -4.97  -13.79 .1100E-02   28.00   .00    772.50


   918.00   -5.07  -13.88 .1100E-02   28.00   .00    787.50


   916.25   -5.17  -13.97 .1100E-02   28.00   .00    802.50


   914.50   -5.27  -14.06 .1100E-02   28.00   .00    817.50


   912.75   -5.36  -14.15 .1100E-02   28.00   .00    832.50


   911.00   -5.46  -14.24 .1100E-02   28.00   .00    847.50


   909.26   -5.56  -14.33 .1100E-02   28.00   .00    862.50


   907.52   -5.65  -14.42 .1100E-02   28.00   .00    877.50


   905.78   -5.75  -14.51 .1100E-02   28.00   .00    892.50


   904.05   -5.85  -14.60 .1100E-02   28.00   .00    907.50


   902.32   -5.95  -14.69 .1100E-02   28.00   .00    922.50


   900.59   -6.05  -14.78 .1100E-02   28.00   .00    937.50


   898.86   -6.14  -14.87 .1100E-02   28.00   .00    952.50


   897.14   -6.24  -14.96 .1100E-02   28.00   .00    967.50


   895.42   -6.34  -15.06 .1100E-02   28.00   .00    982.50


   893.70   -6.43  -15.15 .1100E-02   28.00   .00    997.50


   891.98   -6.53  -15.24 .1100E-02   28.00   .00   1012.50


   890.27   -6.63  -15.33 .1100E-02   28.00   .00   1027.50


   888.56   -6.73  -15.42 .1100E-02   28.00   .00   1042.50


   886.85   -6.83  -15.51 .1100E-02   28.00   .00   1057.50


   885.15   -6.92  -15.60 .1100E-02   28.00   .00   1072.50


   883.44   -7.02  -15.69 .1100E-02   28.00   .00   1087.50


   881.74   -7.12  -15.78 .1100E-02   28.00   .00   1102.50


   880.05   -7.21  -15.87 .1100E-02   28.00   .00   1117.50


   878.35   -7.31  -15.96 .1100E-02   28.00   .00   1132.50


   876.66   -7.41  -16.05 .1100E-02   28.00   .00   1147.50


   874.97   -7.51  -16.14 .1100E-02   28.00   .00   1162.50


   873.28   -7.61  -16.23 .1100E-02   28.00   .00   1177.50


   871.60   -7.70  -16.32 .1100E-02   28.00   .00   1192.50


   869.92   -7.80  -16.41 .1100E-02   28.00   .00   1207.50


   868.24   -7.90  -16.50 .1100E-02   28.00   .00   1222.50


   866.56   -7.99  -16.59 .1100E-02   28.00   .00   1237.50


   864.89   -8.09  -16.69 .1100E-02   28.00   .00   1252.50


   863.22   -8.19  -16.78 .1100E-02   28.00   .00   1267.50


   861.55   -8.29  -16.87 .1100E-02   28.00   .00   1282.50


   859.89   -8.39  -16.96 .1100E-02   28.00   .00   1297.50


   858.22   -8.48  -17.05 .1100E-02   28.00   .00   1312.50


   856.56   -8.58  -17.14 .1100E-02   28.00   .00   1327.50


   854.90   -8.68  -17.23 .1100E-02   28.00   .00   1342.50


   853.25   -8.77  -17.32 .1100E-02   28.00   .00   1357.50


   851.60   -8.87  -17.41 .1100E-02   28.00   .00   1372.50


   849.95   -8.97  -17.50 .1100E-02   28.00   .00   1387.50


   848.30   -9.07  -17.59 .1100E-02   28.00   .00   1402.50


   846.65   -9.17  -17.68 .1100E-02   28.00   .00   1417.50


   845.01   -9.26  -17.77 .1100E-02   28.00   .00   1432.50


   843.37   -9.36  -17.86 .1100E-02   28.00   .00   1447.50


   841.74   -9.46  -17.95 .1100E-02   28.00   .00   1462.50


   840.10   -9.55  -18.04 .1100E-02   28.00   .00   1477.50


   838.47   -9.65  -18.13 .1100E-02   28.00   .00   1492.50


   836.84   -9.75  -18.23 .1010E-02   28.00   .00   1507.50


   835.21   -9.85  -18.32 .1010E-02   28.00   .00   1522.50


   833.59   -9.95  -18.41 .1010E-02   28.00   .00   1537.50


   831.97  -10.04  -18.50 .1010E-02   28.00   .00   1552.50


   830.35  -10.14  -18.59 .1010E-02   28.00   .00   1567.50


   828.73  -10.24  -18.68 .1010E-02   28.00   .00   1582.50


   827.12  -10.33  -18.77 .1010E-02   28.00   .00   1597.50


   825.51  -10.43  -18.86 .1010E-02   28.00   .00   1612.50


   823.90  -10.53  -18.95 .1010E-02   28.00   .00   1627.50


   822.29  -10.63  -19.04 .1010E-02   28.00   .00   1642.50


   820.69  -10.73  -19.13 .1010E-02   28.00   .00   1657.50


   819.08  -10.82  -19.22 .1010E-02   28.00   .00   1672.50


   817.49  -10.92  -19.31 .1010E-02   28.00   .00   1687.50


   815.89  -11.02  -19.40 .1010E-02   28.00   .00   1702.50


   814.30  -11.11  -19.49 .1010E-02   28.00   .00   1717.50


   812.70  -11.21  -19.58 .1010E-02   28.00   .00   1732.50


   811.12  -11.31  -19.68 .1010E-02   28.00   .00   1747.50


   809.53  -11.41  -19.77 .8400E-03   28.00   .00   1762.50


   807.95  -11.51  -19.86 .8400E-03   28.00   .00   1777.50


   806.37  -11.60  -19.95 .8400E-03   28.00   .00   1792.50


   804.79  -11.70  -20.04 .8400E-03   28.00   .00   1807.50


   803.21  -11.80  -20.13 .8400E-03   28.00   .00   1822.50


   801.64  -11.89  -20.22 .8400E-03   28.00   .00   1837.50


   800.07  -11.99  -20.31 .8400E-03   28.00   .00   1852.50


   798.50  -12.09  -20.40 .8400E-03   28.00   .00   1867.50


   796.93  -12.19  -20.49 .8400E-03   28.00   .00   1882.50


   795.37  -12.29  -20.58 .8400E-03   28.00   .00   1897.50


   793.81  -12.38  -20.67 .8400E-03   28.00   .00   1912.50


   792.25  -12.48  -20.76 .8400E-03   28.00   .00   1927.50


   790.69  -12.58  -20.85 .8400E-03   28.00   .00   1942.50


   789.14  -12.67  -20.94 .8400E-03   28.00   .00   1957.50


   787.59  -12.77  -21.04 .8400E-03   28.00   .00   1972.50


   786.04  -12.87  -21.13 .8400E-03   28.00   .00   1987.50


   784.49  -12.97  -21.22 .5800E-03   28.00   .00   2002.50


   782.95  -13.07  -21.31 .5800E-03   28.00   .00   2017.50


   781.41  -13.16  -21.40 .5800E-03   28.00   .00   2032.50


   779.87  -13.26  -21.49 .5800E-03   28.00   .00   2047.50


   778.33  -13.36  -21.58 .5800E-03   28.00   .00   2062.50


   776.80  -13.45  -21.67 .5800E-03   28.00   .00   2077.50


   775.26  -13.55  -21.76 .5800E-03   28.00   .00   2092.50


   773.73  -13.65  -21.85 .5800E-03   28.00   .00   2107.50


   772.21  -13.75  -21.94 .5800E-03   28.00   .00   2122.50


   770.68  -13.85  -22.03 .5800E-03   28.00   .00   2137.50


   769.16  -13.94  -22.12 .5800E-03   28.00   .00   2152.50


   767.64  -14.04  -22.21 .5800E-03   28.00   .00   2167.50


   766.13  -14.14  -22.31 .5800E-03   28.00   .00   2182.50


   764.61  -14.24  -22.40 .5800E-03   28.00   .00   2197.50


   763.10  -14.33  -22.49 .5800E-03   28.00   .00   2212.50


   761.59  -14.43  -22.58 .5800E-03   28.00   .00   2227.50


   760.08  -14.53  -22.67 .5800E-03   28.00   .00   2242.50


   758.58  -14.63  -59.70 .2400E-03   28.00   .00   2257.50


   757.07  -14.72  -59.76 .2400E-03   28.00   .00   2272.50


   755.57  -14.82  -59.83 .2400E-03   28.00   .00   2287.50


   754.08  -14.92  -59.89 .2400E-03   28.00   .00   2302.50


   752.58  -15.01  -59.95 .2400E-03   28.00   .00   2317.50


   751.09  -15.11  -60.02 .2400E-03   28.00   .00   2332.50


   749.60  -15.21  -60.08 .2400E-03   28.00   .00   2347.50


   748.11  -15.31  -60.14 .2400E-03   28.00   .00   2362.50


   746.62  -15.40  -60.21 .2400E-03   28.00   .00   2377.50


   745.14  -15.50  -60.27 .2400E-03   28.00   .00   2392.50


   743.66  -15.60  -60.33 .2400E-03   28.00   .00   2407.50


   742.18  -15.70  -60.40 .2400E-03   28.00   .00   2422.50


   740.71  -15.80  -60.46 .2400E-03   28.00   .00   2437.50


   739.23  -15.89  -60.52 .2400E-03   28.00   .00   2452.50


   737.76  -15.99  -60.59 .2400E-03   28.00   .00   2467.50


   736.29  -16.09  -60.65 .2400E-03   28.00   .00   2482.50


   734.83  -16.18  -60.71 .2400E-03   28.00   .00   2497.50


   733.36  -16.28  -60.78 .1800E-06   28.00   .00   2512.50


   731.90  -16.38  -60.84 .1800E-06   28.00   .00   2527.50


   730.44  -16.48  -60.90 .1800E-06   28.00   .00   2542.50


   728.98  -16.57  -60.97 .1800E-06   28.00   .00   2557.50


   727.53  -16.67  -61.03 .1800E-06   28.00   .00   2572.50


   726.08  -16.77  -61.09 .1800E-06   28.00   .00   2587.50


   724.63  -16.87  -61.16 .1800E-06   28.00   .00   2602.50


   723.18  -16.96  -61.22 .1800E-06   28.00   .00   2617.50


   721.73  -17.06  -61.28 .1800E-06   28.00   .00   2632.50


   720.29  -17.16  -61.35 .1800E-06   28.00   .00   2647.50


   718.85  -17.26  -61.41 .1800E-06   28.00   .00   2662.50


   717.41  -17.35  -61.47 .1800E-06   28.00   .00   2677.50


   715.97  -17.45  -61.54 .1800E-06   28.00   .00   2692.50


   714.54  -17.55  -61.60 .1800E-06   28.00   .00   2707.50


   713.11  -17.65  -61.66 .1800E-06   28.00   .00   2722.50


   711.68  -17.74  -61.73 .1800E-06   28.00   .00   2737.50


   710.25  -17.84  -61.79 .1400E-06   28.00   .00   2752.50


   708.83  -17.94  -61.85 .1400E-06   28.00   .00   2767.50


   707.41  -18.04  -61.92 .1400E-06   28.00   .00   2782.50


   705.99  -18.14  -61.98 .1400E-06   28.00   .00   2797.50


   704.57  -18.23  -62.04 .1400E-06   28.00   .00   2812.50


   703.15  -18.33  -62.11 .1400E-06   28.00   .00   2827.50


   701.74  -18.43  -62.17 .1400E-06   28.00   .00   2842.50


   700.33  -18.53  -62.23 .1400E-06   28.00   .00   2857.50


   698.92  -18.62  -62.30 .1400E-06   28.00   .00   2872.50


   697.52  -18.72  -62.36 .1400E-06   28.00   .00   2887.50


   696.11  -18.82  -62.43 .1400E-06   28.00   .00   2902.50


   694.71  -18.91  -62.49 .1400E-06   28.00   .00   2917.50


   693.31  -19.01  -62.55 .1400E-06   28.00   .00   2932.50


   691.91  -19.11  -62.62 .1400E-06   28.00   .00   2947.50


   690.52  -19.21  -62.68 .1400E-06   28.00   .00   2962.50


   689.13  -19.30  -62.74 .1400E-06   28.00   .00   2977.50


   687.74  -19.40  -62.81 .1400E-06   28.00   .00   2992.50


   686.35  -19.50  -62.87 .1400E-06   28.00   .00   3007.50


   684.96  -19.60  -62.93 .1400E-06   28.00   .00   3022.50


   683.58  -19.70  -63.00 .1400E-06   28.00   .00   3037.50


   682.20  -19.79  -63.06 .1400E-06   28.00   .00   3052.50


   680.82  -19.89  -63.13 .1400E-06   28.00   .00   3067.50


   679.44  -19.99  -63.19 .1400E-06   28.00   .00   3082.50


   678.07  -20.09  -63.25 .1400E-06   28.00   .00   3097.50


   676.70  -20.18  -63.32 .1400E-06   28.00   .00   3112.50


   675.33  -20.28  -63.38 .1400E-06   28.00   .00   3127.50


   673.96  -20.38  -63.44 .1400E-06   28.00   .00   3142.50


   672.60  -20.47  -63.51 .1400E-06   28.00   .00   3157.50


   671.23  -20.57  -63.57 .1400E-06   28.00   .00   3172.50


   669.87  -20.67  -63.64 .1400E-06   28.00   .00   3187.50


   668.51  -20.77  -63.70 .1400E-06   28.00   .00   3202.50


   667.16  -20.87  -63.76 .1400E-06   28.00   .00   3217.50


   665.80  -20.96  -63.83 .1400E-06   28.00   .00   3232.50


   664.45  -21.06  -63.89 .1400E-06   28.00   .00   3247.50


   663.10  -21.16  -63.95 .1400E-06   28.00   .00   3262.50


   661.75  -21.26  -64.02 .1400E-06   28.00   .00   3277.50


   660.41  -21.35  -64.08 .1400E-06   28.00   .00   3292.50


   659.07  -21.45  -64.15 .1400E-06   28.00   .00   3307.50


   657.73  -21.55  -64.21 .1400E-06   28.00   .00   3322.50


   656.39  -21.65  -64.27 .1400E-06   28.00   .00   3337.50


   655.05  -21.74  -64.34 .1400E-06   28.00   .00   3352.50


   653.72  -21.84  -64.40 .1400E-06   28.00   .00   3367.50


   652.38  -21.94  -64.47 .1400E-06   28.00   .00   3382.50


   651.06  -22.03  -64.53 .1400E-06   28.00   .00   3397.50


   649.73  -22.13  -64.59 .1400E-06   28.00   .00   3412.50


   648.40  -22.23  -64.66 .1400E-06   28.00   .00   3427.50


   647.08  -22.33  -64.72 .1400E-06   28.00   .00   3442.50


   645.76  -22.43  -64.79 .1400E-06   28.00   .00   3457.50


   644.44  -22.52  -64.85 .1400E-06   28.00   .00   3472.50


   643.12  -22.62  -64.91 .1400E-06   28.00   .00   3487.50


   641.81  -22.72  -64.98 .1400E-06   28.00   .00   3502.50


   640.50  -22.82  -65.04 .1400E-06   28.00   .00   3517.50


   639.19  -22.91  -65.11 .1400E-06   28.00   .00   3532.50


   637.88  -23.01  -65.17 .1400E-06   28.00   .00   3547.50


   636.57  -23.11  -65.23 .1400E-06   28.00   .00   3562.50


   635.27  -23.21  -65.30 .1400E-06   28.00   .00   3577.50


   633.97  -23.30  -65.36 .1400E-06   28.00   .00   3592.50


   632.67  -23.40  -65.43 .1400E-06   28.00   .00   3607.50


   631.37  -23.50  -65.49 .1400E-06   28.00   .00   3622.50


   630.08  -23.60  -65.55 .1400E-06   28.00   .00   3637.50


   628.78  -23.69  -65.62 .1400E-06   28.00   .00   3652.50


   627.49  -23.79  -65.68 .1400E-06   28.00   .00   3667.50


   626.20  -23.89  -65.75 .1400E-06   28.00   .00   3682.50


   624.92  -23.99  -65.81 .1400E-06   28.00   .00   3697.50


   623.63  -24.08  -65.87 .1400E-06   28.00   .00   3712.50


   622.35  -24.18  -65.94 .1400E-06   28.00   .00   3727.50


   621.07  -24.28  -66.00 .1400E-06   28.00   .00   3742.50


   619.79  -24.38  -66.07 .1400E-06   28.00   .00   3757.50


   618.52  -24.47  -66.13 .1400E-06   28.00   .00   3772.50


   617.25  -24.57  -66.20 .1400E-06   28.00   .00   3787.50


   615.97  -24.67  -66.26 .1400E-06   28.00   .00   3802.50


   614.70  -24.76  -66.32 .1400E-06   28.00   .00   3817.50


   613.44  -24.86  -66.39 .1400E-06   28.00   .00   3832.50


   612.17  -24.96  -66.45 .1400E-06   28.00   .00   3847.50


   610.91  -25.06  -66.52 .1400E-06   28.00   .00   3862.50


   609.65  -25.15  -66.58 .1400E-06   28.00   .00   3877.50


   608.39  -25.25  -66.65 .1400E-06   28.00   .00   3892.50


   607.13  -25.35  -66.71 .1400E-06   28.00   .00   3907.50


   605.88  -25.45  -66.77 .1400E-06   28.00   .00   3922.50


   604.63  -25.54  -66.84 .1400E-06   28.00   .00   3937.50


   603.38  -25.64  -66.90 .1400E-06   28.00   .00   3952.50


   602.13  -25.74  -66.97 .1400E-06   28.00   .00   3967.50


   600.88  -25.84  -67.03 .1400E-06   28.00   .00   3982.50


   599.64  -25.93  -67.10 .1400E-06   28.00   .00   3997.50


   598.40  -26.03  -67.16 .1400E-06   28.00   .00   4012.50


   597.16  -26.13  -67.22 .1400E-06   28.00   .00   4027.50


   595.92  -26.23  -67.29 .1400E-06   28.00   .00   4042.50


   594.68  -26.33  -67.35 .1400E-06   28.00   .00   4057.50


   593.45  -26.42  -67.42 .1400E-06   28.00   .00   4072.50


   592.22  -26.52  -67.48 .1400E-06   28.00   .00   4087.50


   590.99  -26.62  -67.55 .1400E-06   28.00   .00   4102.50


   589.76  -26.71  -67.61 .1400E-06   28.00   .00   4117.50


   588.53  -26.81  -67.68 .1400E-06   28.00   .00   4132.50


   587.31  -26.91  -67.74 .1400E-06   28.00   .00   4147.50


   586.09  -27.01  -67.80 .1400E-06   28.00   .00   4162.50


   584.87  -27.10  -67.87 .1400E-06   28.00   .00   4177.50


   583.65  -27.20  -67.93 .1400E-06   28.00   .00   4192.50


   582.44  -27.30  -68.00 .1400E-06   28.00   .00   4207.50


   581.23  -27.40  -68.06 .1400E-06   28.00   .00   4222.50


   580.02  -27.49  -68.13 .1400E-06   28.00   .00   4237.50


   578.81  -27.59  -68.19 .1400E-06   28.00   .00   4252.50


   577.60  -27.69  -68.26 .1400E-06   28.00   .00   4267.50


   576.39  -27.79  -68.32 .1400E-06   28.00   .00   4282.50


   575.19  -27.89  -68.39 .1400E-06   28.00   .00   4297.50


   573.99  -27.98  -68.45 .1400E-06   28.00   .00   4312.50


   572.79  -28.08  -68.51 .1400E-06   28.00   .00   4327.50


   571.60  -28.18  -68.58 .1400E-06   28.00   .00   4342.50


   570.40  -28.27  -68.64 .1400E-06   28.00   .00   4357.50


   569.21  -28.37  -68.71 .1400E-06   28.00   .00   4372.50


   568.02  -28.47  -68.77 .1400E-06   28.00   .00   4387.50


   566.83  -28.57  -68.84 .1400E-06   28.00   .00   4402.50


   565.64  -28.66  -68.90 .1400E-06   28.00   .00   4417.50


   564.46  -28.76  -68.97 .1400E-06   28.00   .00   4432.50


   563.27  -28.86  -69.03 .1400E-06   28.00   .00   4447.50


   562.09  -28.96  -69.10 .1400E-06   28.00   .00   4462.50


   560.92  -29.06  -69.16 .1400E-06   28.00   .00   4477.50


   559.74  -29.15  -69.23 .1400E-06   28.00   .00   4492.50


   558.56  -29.25  -69.29 .1400E-06   28.00   .00   4507.50


   557.39  -29.35  -69.35 .1400E-06   28.00   .00   4522.50


   556.22  -29.45  -69.42 .1400E-06   28.00   .00   4537.50


   555.05  -29.54  -69.48 .1400E-06   28.00   .00   4552.50


   553.89  -29.64  -69.55 .1400E-06   28.00   .00   4567.50


   552.72  -29.74  -69.61 .1400E-06   28.00   .00   4582.50


   551.56  -29.83  -69.68 .1400E-06   28.00   .00   4597.50


   550.40  -29.93  -69.74 .1400E-06   28.00   .00   4612.50


   549.24  -30.03  -69.81 .1400E-06   28.00   .00   4627.50


   548.08  -30.13  -69.87 .1400E-06   28.00   .00   4642.50


   546.93  -30.23  -69.94 .1400E-06   28.00   .00   4657.50


   545.78  -30.32  -70.00 .1400E-06   28.00   .00   4672.50


   544.62  -30.42  -70.07 .1400E-06   28.00   .00   4687.50


   543.48  -30.52  -70.13 .1400E-06   28.00   .00   4702.50


   542.33  -30.62  -70.20 .1400E-06   28.00   .00   4717.50


   541.18  -30.71  -70.26 .1400E-06   28.00   .00   4732.50


   540.04  -30.81  -70.33 .1400E-06   28.00   .00   4747.50


   538.90  -30.91  -70.39 .1400E-06   28.00   .00   4762.50


   537.76  -31.01  -70.46 .1400E-06   28.00   .00   4777.50


   536.62  -31.10  -70.52 .1400E-06   28.00   .00   4792.50


   535.49  -31.20  -70.59 .1400E-06   28.00   .00   4807.50


   534.36  -31.30  -70.65 .1400E-06   28.00   .00   4822.50


   533.22  -31.39  -70.72 .1400E-06   28.00   .00   4837.50


   532.09  -31.49  -70.78 .1400E-06   28.00   .00   4852.50


   530.97  -31.59  -70.85 .1400E-06   28.00   .00   4867.50


   529.84  -31.69  -70.91 .1400E-06   28.00   .00   4882.50


   528.72  -31.79  -70.98 .1400E-06   28.00   .00   4897.50


   527.60  -31.88  -71.04 .1400E-06   28.00   .00   4912.50


   526.48  -31.98  -71.11 .1400E-06   28.00   .00   4927.50


   525.36  -32.08  -71.17 .1400E-06   28.00   .00   4942.50


   524.24  -32.18  -71.24 .1400E-06   28.00   .00   4957.50


   523.13  -32.27  -71.30 .1400E-06   28.00   .00   4972.50


   522.02  -32.37  -71.37 .1400E-06   28.00   .00   4987.50


   520.91  -32.47  -71.43 .1400E-06   28.00   .00   5002.50


   519.80  -32.57  -71.50 .1400E-06   28.00   .00   5017.50


   518.69  -32.66  -71.56 .1400E-06   28.00   .00   5032.50


   517.59  -32.76  -71.63 .1400E-06   28.00   .00   5047.50


   516.49  -32.86  -71.69 .1400E-06   28.00   .00   5062.50


   515.39  -32.96  -71.76 .1400E-06   28.00   .00   5077.50


   514.29  -33.05  -71.82 .1400E-06   28.00   .00   5092.50


   513.19  -33.15  -71.89 .1400E-06   28.00   .00   5107.50


   512.10  -33.25  -71.95 .1400E-06   28.00   .00   5122.50


   511.00  -33.35  -72.02 .1400E-06   28.00   .00   5137.50


   509.91  -33.44  -72.08 .1400E-06   28.00   .00   5152.50


   508.82  -33.54  -72.15 .1400E-06   28.00   .00   5167.50


   507.74  -33.64  -72.21 .1400E-06   28.00   .00   5182.50


   506.65  -33.74  -72.28 .1400E-06   28.00   .00   5197.50


   505.57  -33.83  -72.34 .1400E-06   28.00   .00   5212.50


   504.48  -33.93  -72.41 .1400E-06   28.00   .00   5227.50


   503.41  -34.03  -72.47 .1400E-06   28.00   .00   5242.50


   502.33  -34.13  -72.54 .1400E-06   28.00   .00   5257.50


   501.25  -34.22  -72.61 .1400E-06   28.00   .00   5272.50


   500.18  -34.32  -72.67 .1400E-06   28.00   .00   5287.50


   499.10  -34.42  -72.74 .1400E-06   28.00   .00   5302.50


   498.03  -34.51  -72.80 .1400E-06   28.00   .00   5317.50


   496.97  -34.61  -72.87 .1400E-06   28.00   .00   5332.50


   495.90  -34.71  -72.93 .1400E-06   28.00   .00   5347.50


   494.83  -34.81  -73.00 .1400E-06   28.00   .00   5362.50


   493.77  -34.90  -73.06 .1400E-06   28.00   .00   5377.50


   492.71  -35.00  -73.13 .1400E-06   28.00   .00   5392.50


   491.65  -35.10  -73.19 .1400E-06   28.00   .00   5407.50


   490.59  -35.20  -73.26 .1400E-06   28.00   .00   5422.50


   489.54  -35.29  -73.32 .1400E-06   28.00   .00   5437.50


   488.48  -35.39  -73.39 .1400E-06   28.00   .00   5452.50


   487.43  -35.49  -73.45 .1400E-06   28.00   .00   5467.50


   486.38  -35.59  -73.52 .1400E-06   28.00   .00   5482.50


   485.33  -35.69  -73.59 .1400E-06   28.00   .00   5497.50


   484.29  -35.78  -73.65 .4500E-07   28.00   .00   5512.50


   483.24  -35.88  -73.72 .4500E-07   28.00   .00   5527.50


   482.20  -35.98  -73.78 .4500E-07   28.00   .00   5542.50


   481.16  -36.07  -73.85 .4500E-07   28.00   .00   5557.50


   480.12  -36.17  -73.91 .4500E-07   28.00   .00   5572.50


   479.08  -36.27  -73.98 .4500E-07   28.00   .00   5587.50


   478.05  -36.37  -74.04 .4500E-07   28.00   .00   5602.50


   477.01  -36.46  -74.11 .4500E-07   28.00   .00   5617.50


   475.98  -36.56  -74.18 .4500E-07   28.00   .00   5632.50


   474.95  -36.66  -74.24 .4500E-07   28.00   .00   5647.50


   473.92  -36.76  -74.31 .4500E-07   28.00   .00   5662.50


   472.90  -36.85  -74.37 .4500E-07   28.00   .00   5677.50


   471.87  -36.95  -74.44 .4500E-07   28.00   .00   5692.50


   470.85  -37.05  -74.50 .4500E-07   28.00   .00   5707.50


   469.83  -37.15  -74.57 .4500E-07   28.00   .00   5722.50


   468.81  -37.25  -74.63 .4500E-07   28.00   .00   5737.50


   467.79  -37.34  -74.70 .4500E-07   28.00   .00   5752.50


   466.78  -37.44  -74.77 .4500E-07   28.00   .00   5767.50


   465.76  -37.54  -74.83 .4500E-07   28.00   .00   5782.50


   464.75  -37.63  -74.90 .4500E-07   28.00   .00   5797.50


   463.74  -37.73  -74.96 .4500E-07   28.00   .00   5812.50


   462.73  -37.83  -75.03 .4500E-07   28.00   .00   5827.50


   461.72  -37.93  -75.09 .4500E-07   28.00   .00   5842.50


   460.72  -38.02  -75.16 .4500E-07   28.00   .00   5857.50


   459.72  -38.12  -75.23 .4500E-07   28.00   .00   5872.50


   458.71  -38.22  -75.29 .4500E-07   28.00   .00   5887.50


   457.71  -38.32  -75.36 .4500E-07   28.00   .00   5902.50


   456.72  -38.42  -75.42 .4500E-07   28.00   .00   5917.50


   455.72  -38.51  -75.49 .4500E-07   28.00   .00   5932.50


   454.73  -38.61  -75.55 .4500E-07   28.00   .00   5947.50


   453.73  -38.71  -75.62 .4500E-07   28.00   .00   5962.50


   452.74  -38.81  -75.69 .4500E-07   28.00   .00   5977.50


   451.75  -38.90  -75.75 .4500E-07   28.00   .00   5992.50


   450.77  -39.00  -75.82 .4500E-07   28.00   .00   6007.50


   449.78  -39.10  -75.88 .4500E-07   28.00   .00   6022.50


   448.80  -39.19  -75.95 .4500E-07   28.00   .00   6037.50


   447.81  -39.29  -76.01 .4500E-07   28.00   .00   6052.50


   446.83  -39.39  -76.08 .4500E-07   28.00   .00   6067.50


   445.85  -39.49  -76.15 .4500E-07   28.00   .00   6082.50


   444.88  -39.59  -76.21 .4500E-07   28.00   .00   6097.50


   443.90  -39.68  -76.28 .4500E-07   28.00   .00   6112.50


   442.93  -39.78  -76.34 .4500E-07   28.00   .00   6127.50


   441.96  -39.88  -76.41 .4500E-07   28.00   .00   6142.50


   440.99  -39.98  -76.48 .4500E-07   28.00   .00   6157.50


   440.02  -40.07  -76.54 .4500E-07   28.00   .00   6172.50


   439.05  -40.17  -76.61 .4500E-07   28.00   .00   6187.50


   438.09  -40.27  -76.67 .4500E-07   28.00   .00   6202.50


   437.12  -40.37  -76.74 .4500E-07   28.00   .00   6217.50


   436.16  -40.46  -76.81 .4500E-07   28.00   .00   6232.50


   435.20  -40.56  -76.87 .4500E-07   28.00   .00   6247.50


   434.24  -40.66  -76.94 .4500E-07   28.00   .00   6262.50


   433.29  -40.75  -77.00 .4500E-07   28.00   .00   6277.50


   432.33  -40.85  -77.07 .4500E-07   28.00   .00   6292.50


   431.38  -40.95  -77.14 .4500E-07   28.00   .00   6307.50


   430.43  -41.05  -77.20 .4500E-07   28.00   .00   6322.50


   429.48  -41.15  -77.27 .4500E-07   28.00   .00   6337.50


   428.53  -41.24  -77.33 .4500E-07   28.00   .00   6352.50


   427.59  -41.34  -77.40 .4500E-07   28.00   .00   6367.50


   426.64  -41.44  -77.47 .4500E-07   28.00   .00   6382.50


   425.70  -41.54  -77.53 .4500E-07   28.00   .00   6397.50


   424.76  -41.63  -77.60 .4500E-07   28.00   .00   6412.50


   423.82  -41.73  -77.66 .4500E-07   28.00   .00   6427.50


   422.88  -41.83  -77.73 .4500E-07   28.00   .00   6442.50


   421.95  -41.93  -77.80 .4500E-07   28.00   .00   6457.50


   421.01  -42.02  -77.86 .4500E-07   28.00   .00   6472.50


   420.08  -42.12  -77.93 .4500E-07   28.00   .00   6487.50


   419.15  -42.22  -78.00 .4500E-07   28.00   .00   6502.50


   418.22  -42.32  -78.06 .4500E-07   28.00   .00   6517.50


   417.29  -42.41  -78.13 .4500E-07   28.00   .00   6532.50


   416.36  -42.51  -78.19 .4500E-07   28.00   .00   6547.50


   415.44  -42.61  -78.26 .4500E-07   28.00   .00   6562.50


   414.52  -42.71  -78.33 .4500E-07   28.00   .00   6577.50


   413.60  -42.80  -78.39 .4500E-07   28.00   .00   6592.50


   412.68  -42.90  -78.46 .4500E-07   28.00   .00   6607.50


   411.76  -43.00  -78.53 .4500E-07   28.00   .00   6622.50


   410.84  -43.10  -78.59 .4500E-07   28.00   .00   6637.50


   409.93  -43.19  -78.66 .4500E-07   28.00   .00   6652.50


   409.02  -43.29  -78.72 .4500E-07   28.00   .00   6667.50


   408.11  -43.39  -78.79 .4500E-07   28.00   .00   6682.50


   407.20  -43.49  -78.86 .4500E-07   28.00   .00   6697.50


   406.29  -43.58  -78.92 .4500E-07   28.00   .00   6712.50


   405.38  -43.68  -78.99 .4500E-07   28.00   .00   6727.50


   404.48  -43.78  -79.06 .4500E-07   28.00   .00   6742.50


   403.58  -43.88  -79.12 .4500E-07   28.00   .00   6757.50


   402.67  -43.97  -79.19 .4500E-07   28.00   .00   6772.50


   401.77  -44.07  -79.26 .4500E-07   28.00   .00   6787.50


   400.88  -44.17  -79.32 .4500E-07   28.00   .00   6802.50


   399.98  -44.26  -79.39 .4500E-07   28.00   .00   6817.50


   399.09  -44.36  -79.45 .4500E-07   28.00   .00   6832.50


   398.19  -44.46  -79.52 .4500E-07   28.00   .00   6847.50


   397.30  -44.56  -79.59 .4500E-07   28.00   .00   6862.50


   396.41  -44.65  -79.65 .4500E-07   28.00   .00   6877.50


   395.52  -44.75  -79.72 .4500E-07   28.00   .00   6892.50


   394.64  -44.85  -79.79 .4500E-07   28.00   .00   6907.50


   393.75  -44.95  -79.85 .4500E-07   28.00   .00   6922.50


   392.87  -45.05  -79.92 .4500E-07   28.00   .00   6937.50


   391.99  -45.14  -79.99 .4500E-07   28.00   .00   6952.50


   391.11  -45.24  -80.05 .4500E-07   28.00   .00   6967.50


   390.23  -45.34  -80.12 .4500E-07   28.00   .00   6982.50


   389.35  -45.43  -80.19 .4500E-07   28.00   .00   6997.50


   388.47  -45.53  -80.25 .4500E-07   28.00   .00   7012.50


   387.60  -45.63  -80.32 .4500E-07   28.00   .00   7027.50


   386.73  -45.73  -80.39 .4500E-07   28.00   .00   7042.50


   385.86  -45.82  -80.45 .4500E-07   28.00   .00   7057.50


   384.99  -45.92  -80.52 .4500E-07   28.00   .00   7072.50


   384.12  -46.02  -80.59 .4500E-07   28.00   .00   7087.50


   383.26  -46.12  -80.65 .4500E-07   28.00   .00   7102.50


   382.39  -46.21  -80.72 .4500E-07   28.00   .00   7117.50


   381.53  -46.31  -80.79 .4500E-07   28.00   .00   7132.50


   380.67  -46.41  -80.85 .4500E-07   28.00   .00   7147.50


   379.81  -46.51  -80.92 .4500E-07   28.00   .00   7162.50


   378.95  -46.61  -80.99 .4500E-07   28.00   .00   7177.50


   378.09  -46.70  -81.05 .4500E-07   28.00   .00   7192.50


   377.24  -46.80  -81.12 .4500E-07   28.00   .00   7207.50


   376.39  -46.90  -81.19 .4500E-07   28.00   .00   7222.50


   375.53  -46.99  -81.25 .4500E-07   28.00   .00   7237.50


   374.68  -47.09  -81.32 .4500E-07   28.00   .00   7252.50


   373.84  -47.19  -81.39 .4500E-07   28.00   .00   7267.50


   372.99  -47.29  -81.45 .4500E-07   28.00   .00   7282.50


   372.14  -47.38  -81.52 .4500E-07   28.00   .00   7297.50


   371.30  -47.48  -81.59 .4500E-07   28.00   .00   7312.50


   370.46  -47.58  -81.65 .4500E-07   28.00   .00   7327.50


   369.62  -47.68  -81.72 .4500E-07   28.00   .00   7342.50


   368.78  -47.78  -81.79 .4500E-07   28.00   .00   7357.50


   367.94  -47.87  -81.85 .4500E-07   28.00   .00   7372.50


   367.10  -47.97  -81.92 .4500E-07   28.00   .00   7387.50


   366.27  -48.07  -81.99 .4500E-07   28.00   .00   7402.50


   365.43  -48.17  -82.05 .4500E-07   28.00   .00   7417.50


   364.60  -48.26  -82.12 .4500E-07   28.00   .00   7432.50


   363.77  -48.36  -82.19 .4500E-07   28.00   .00   7447.50


   362.94  -48.46  -82.25 .4500E-07   28.00   .00   7462.50


   362.12  -48.55  -82.32 .4500E-07   28.00   .00   7477.50


   361.29  -48.65  -82.39 .4500E-07   28.00   .00   7492.50


   360.47  -48.75  -82.46 .4500E-07   28.00   .00   7507.50


   359.65  -48.85  -82.52 .4500E-07   28.00   .00   7522.50


   358.82  -48.94  -82.59 .4500E-07   28.00   .00   7537.50


   358.01  -49.04  -82.66 .4500E-07   28.00   .00   7552.50


   357.19  -49.14  -82.72 .4500E-07   28.00   .00   7567.50


   356.37  -49.24  -82.79 .4500E-07   28.00   .00   7582.50


   355.56  -49.34  -82.86 .4500E-07   28.00   .00   7597.50


   354.74  -49.43  -82.92 .4500E-07   28.00   .00   7612.50


   353.93  -49.53  -82.99 .4500E-07   28.00   .00   7627.50


   353.12  -49.63  -83.06 .4500E-07   28.00   .00   7642.50


   352.31  -49.73  -83.13 .4500E-07   28.00   .00   7657.50


   351.50  -49.82  -83.19 .4500E-07   28.00   .00   7672.50


   350.70  -49.92  -83.26 .4500E-07   28.00   .00   7687.50


   349.89  -50.02  -83.33 .4500E-07   28.00   .00   7702.50


   349.09  -50.11  -83.39 .4500E-07   28.00   .00   7717.50


   348.29  -50.21  -83.46 .4500E-07   28.00   .00   7732.50


   347.49  -50.31  -83.53 .4500E-07   28.00   .00   7747.50


   346.69  -50.41  -83.60 .4500E-07   28.00   .00   7762.50


   345.89  -50.51  -83.66 .4500E-07   28.00   .00   7777.50


   345.10  -50.60  -83.73 .4500E-07   28.00   .00   7792.50


   344.31  -50.70  -83.80 .4500E-07   28.00   .00   7807.50


   343.51  -50.80  -83.86 .4500E-07   28.00   .00   7822.50


   342.72  -50.90  -83.93 .4500E-07   28.00   .00   7837.50


   341.93  -50.99  -84.00 .4500E-07   28.00   .00   7852.50


   341.14  -51.09  -84.07 .4500E-07   28.00   .00   7867.50


   340.36  -51.19  -84.13 .4500E-07   28.00   .00   7882.50


   339.57  -51.29  -84.20 .4500E-07   28.00   .00   7897.50


   338.79  -51.38  -84.27 .4500E-07   28.00   .00   7912.50


   338.01  -51.48  -84.33 .4500E-07   28.00   .00   7927.50


   337.23  -51.58  -84.40 .4500E-07   28.00   .00   7942.50


   336.45  -51.68  -84.47 .4500E-07   28.00   .00   7957.50


   335.67  -51.77  -84.54 .4500E-07   28.00   .00   7972.50


   334.89  -51.87  -84.60 .4500E-07   28.00   .00   7987.50


   334.12  -51.97  -84.67 .4500E-07   28.00   .00   8002.50


   333.35  -52.07  -84.74 .4500E-07   28.00   .00   8017.50


   332.57  -52.16  -84.81 .4500E-07   28.00   .00   8032.50


   331.80  -52.26  -84.87 .4500E-07   28.00   .00   8047.50


   331.03  -52.36  -84.94 .4500E-07   28.00   .00   8062.50


   330.27  -52.46  -85.01 .4500E-07   28.00   .00   8077.50


   329.50  -52.55  -85.07 .4500E-07   28.00   .00   8092.50


   328.74  -52.65  -85.14 .4500E-07   28.00   .00   8107.50


   327.97  -52.75  -85.21 .4500E-07   28.00   .00   8122.50


   327.21  -52.85  -85.28 .4500E-07   28.00   .00   8137.50


   326.45  -52.94  -85.34 .4500E-07   28.00   .00   8152.50


   325.69  -53.04  -85.41 .4500E-07   28.00   .00   8167.50


   324.93  -53.14  -85.48 .4500E-07   28.00   .00   8182.50


   324.18  -53.24  -85.55 .4500E-07   28.00   .00   8197.50


   323.42  -53.33  -85.61 .4500E-07   28.00   .00   8212.50


   322.67  -53.43  -85.68 .4500E-07   28.00   .00   8227.50


   321.92  -53.53  -85.75 .4500E-07   28.00   .00   8242.50


   321.17  -53.63  -85.82 .4500E-07   28.00   .00   8257.50


   320.42  -53.72  -85.88 .4500E-07   28.00   .00   8272.50


   319.67  -53.82  -85.95 .4500E-07   28.00   .00   8287.50


   318.92  -53.92  -86.02 .4500E-07   28.00   .00   8302.50


   318.18  -54.01  -86.09 .4500E-07   28.00   .00   8317.50


   317.44  -54.11  -86.15 .4500E-07   28.00   .00   8332.50


   316.69  -54.21  -86.22 .4500E-07   28.00   .00   8347.50


   315.95  -54.31  -86.29 .4500E-07   28.00   .00   8362.50


   315.21  -54.41  -86.36 .4500E-07   28.00   .00   8377.50


   314.48  -54.50  -86.43 .4500E-07   28.00   .00   8392.50


   313.74  -54.60  -86.49 .4500E-07   28.00   .00   8407.50


   313.01  -54.70  -86.56 .4500E-07   28.00   .00   8422.50


   312.27  -54.79  -86.63 .4500E-07   28.00   .00   8437.50


   311.54  -54.89  -86.70 .4500E-07   28.00   .00   8452.50


   310.81  -54.99  -86.76 .4500E-07   28.00   .00   8467.50


   310.08  -55.09  -86.83 .4500E-07   28.00   .00   8482.50


   309.35  -55.18  -86.90 .4500E-07   28.00   .00   8497.50


   308.62  -55.28  -86.97 .4500E-07   28.00   .00   8512.50


   307.90  -55.38  -87.03 .4500E-07   28.00   .00   8527.50


   307.18  -55.48  -87.10 .4500E-07   28.00   .00   8542.50


   306.45  -55.57  -87.17 .4500E-07   28.00   .00   8557.50


   305.73  -55.67  -87.24 .4500E-07   28.00   .00   8572.50


   305.01  -55.77  -87.31 .4500E-07   28.00   .00   8587.50


   304.29  -55.87  -87.37 .4500E-07   28.00   .00   8602.50


   303.58  -55.97  -87.44 .4500E-07   28.00   .00   8617.50


   302.86  -56.06  -87.51 .4500E-07   28.00   .00   8632.50


   302.15  -56.16  -87.58 .4500E-07   28.00   .00   8647.50


   301.43  -56.26  -87.64 .4500E-07   28.00   .00   8662.50


   300.72  -56.35  -87.71 .4500E-07   28.00   .00   8677.50


   300.01  -56.45  -87.78 .4500E-07   28.00   .00   8692.50


   299.30  -56.55  -87.85 .4500E-07   28.00   .00   8707.50


   298.60  -56.65  -87.92 .4500E-07   28.00   .00   8722.50


   297.89  -56.74  -87.98 .4500E-07   28.00   .00   8737.50


   297.19  -56.84  -88.05 .4500E-07   28.00   .00   8752.50


   296.48  -56.94  -88.12 .4500E-07   28.00   .00   8767.50


   295.78  -57.04  -88.19 .4500E-07   28.00   .00   8782.50


   295.08  -57.14  -88.26 .4500E-07   28.00   .00   8797.50


   294.38  -57.23  -88.32 .4500E-07   28.00   .00   8812.50


   293.68  -57.33  -88.39 .4500E-07   28.00   .00   8827.50


   292.99  -57.43  -88.46 .4500E-07   28.00   .00   8842.50


   292.29  -57.53  -88.53 .4500E-07   28.00   .00   8857.50


   291.60  -57.62  -88.59 .4500E-07   28.00   .00   8872.50


   290.90  -57.72  -88.66 .4500E-07   28.00   .00   8887.50


   290.21  -57.82  -88.73 .4500E-07   28.00   .00   8902.50


   289.52  -57.91  -88.80 .4500E-07   28.00   .00   8917.50


   288.83  -58.01  -88.87 .4500E-07   28.00   .00   8932.50


   288.15  -58.11  -88.94 .4500E-07   28.00   .00   8947.50


   287.46  -58.21  -89.00 .4500E-07   28.00   .00   8962.50


   286.78  -58.30  -89.07 .4500E-07   28.00   .00   8977.50


   286.09  -58.40  -89.14 .4500E-07   28.00   .00   8992.50


   285.41  -58.50  -85.25 .1400E-07   28.00   .00   9007.50


   284.73  -58.60  -85.32 .1400E-07   28.00   .00   9022.50


   284.05  -58.70  -85.39 .1400E-07   28.00   .00   9037.50


   283.37  -58.79  -85.46 .1400E-07   28.00   .00   9052.50


   282.70  -58.89  -85.53 .1400E-07   28.00   .00   9067.50


   282.02  -58.99  -85.60 .1400E-07   28.00   .00   9082.50


   281.35  -59.09  -85.68 .1400E-07   28.00   .00   9097.50


   280.67  -59.18  -85.75 .1400E-07   28.00   .00   9112.50


   280.00  -59.28  -85.82 .1400E-07   28.00   .00   9127.50


   279.33  -59.38  -85.89 .1400E-07   28.00   .00   9142.50


   278.66  -59.47  -85.96 .1400E-07   28.00   .00   9157.50


   277.99  -59.57  -86.03 .1400E-07   28.00   .00   9172.50


   277.33  -59.67  -86.11 .1400E-07   28.00   .00   9187.50


   276.66  -59.77  -86.18 .1400E-07   28.00   .00   9202.50


   276.00  -59.87  -86.25 .1400E-07   28.00   .00   9217.50


   275.34  -59.96  -86.32 .1400E-07   28.00   .00   9232.50


   274.68  -60.06  -86.39 .1400E-07   28.00   .00   9247.50


   274.02  -60.16  -86.47 .1400E-07   28.00   .00   9262.50


   273.36  -60.26  -86.54 .1400E-07   28.00   .00   9277.50


   272.70  -60.35  -86.61 .1400E-07   28.00   .00   9292.50


   272.04  -60.45  -86.68 .1400E-07   28.00   .00   9307.50


   271.39  -60.55  -86.75 .1400E-07   28.00   .00   9322.50


   270.73  -60.65  -86.82 .1400E-07   28.00   .00   9337.50


   270.08  -60.74  -86.90 .1400E-07   28.00   .00   9352.50


   269.43  -60.84  -86.97 .1400E-07   28.00   .00   9367.50


   268.78  -60.94  -87.04 .1400E-07   28.00   .00   9382.50


   268.13  -61.04  -87.11 .1400E-07   28.00   .00   9397.50


   267.49  -61.13  -87.18 .1400E-07   28.00   .00   9412.50


   266.84  -61.23  -87.26 .1400E-07   28.00   .00   9427.50


   266.20  -61.33  -87.33 .1400E-07   28.00   .00   9442.50


   265.55  -61.43  -87.40 .1400E-07   28.00   .00   9457.50


   264.91  -61.52  -87.47 .1400E-07   28.00   .00   9472.50


   264.27  -61.62  -87.54 .1400E-07   28.00   .00   9487.50


   263.63  -61.72  -87.62 .1400E-07   28.00   .00   9502.50


   262.99  -61.82  -87.69 .1400E-07   28.00   .00   9517.50


   262.35  -61.91  -87.76 .1400E-07   28.00   .00   9532.50


   261.72  -62.01  -87.83 .1400E-07   28.00   .00   9547.50


   261.08  -62.11  -87.90 .1400E-07   28.00   .00   9562.50


   260.45  -62.21  -87.98 .1400E-07   28.00   .00   9577.50


   259.82  -62.30  -88.05 .1400E-07   28.00   .00   9592.50


   259.19  -62.40  -88.12 .1400E-07   28.00   .00   9607.50


   258.56  -62.50  -88.19 .1400E-07   28.00   .00   9622.50


   257.93  -62.60  -88.26 .1400E-07   28.00   .00   9637.50


   257.30  -62.69  -88.34 .1400E-07   28.00   .00   9652.50


   256.68  -62.79  -88.41 .1400E-07   28.00   .00   9667.50


   256.05  -62.89  -88.48 .1400E-07   28.00   .00   9682.50


   255.43  -62.99  -88.55 .1400E-07   28.00   .00   9697.50


   254.81  -63.08  -88.62 .1400E-07   28.00   .00   9712.50


   254.19  -63.18  -88.70 .1400E-07   28.00   .00   9727.50


   253.57  -63.28  -88.77 .1400E-07   28.00   .00   9742.50


   252.95  -63.38  -88.84 .1400E-07   28.00   .00   9757.50


   252.33  -63.47  -88.91 .1400E-07   28.00   .00   9772.50


   251.71  -63.57  -88.98 .1400E-07   28.00   .00   9787.50


   251.10  -63.67  -89.06 .1400E-07   28.00   .00   9802.50


   250.49  -63.77  -89.13 .1400E-07   28.00   .00   9817.50


   249.87  -63.86  -89.20 .1400E-07   28.00   .00   9832.50


   249.26  -63.96  -89.27 .1400E-07   28.00   .00   9847.50


   248.65  -64.06  -89.35 .1400E-07   28.00   .00   9862.50


   248.04  -64.15  -89.42 .1400E-07   28.00   .00   9877.50


   247.44  -64.25  -89.49 .1400E-07   28.00   .00   9892.50


   246.83  -64.35  -89.56 .1400E-07   28.00   .00   9907.50


   246.22  -64.45  -89.63 .1400E-07   28.00   .00   9922.50


   245.62  -64.54  -89.71 .1400E-07   28.00   .00   9937.50


   245.02  -64.64  -89.78 .1400E-07   28.00   .00   9952.50


   244.42  -64.74  -89.85 .1400E-07   28.00   .00   9967.50


   243.81  -64.84  -89.92 .1400E-07   28.00   .00   9982.50


   243.22  -64.93  -90.00 .1400E-07   28.00   .00   9997.50


   242.62  -65.03  -90.07 .1400E-07   28.00   .00  10012.50


   242.02  -65.13  -90.14 .1400E-07   28.00   .00  10027.50


   241.43  -65.23  -90.21 .1400E-07   28.00   .00  10042.50


   240.83  -65.33  -90.28 .1400E-07   28.00   .00  10057.50


   240.24  -65.42  -90.36 .1400E-07   28.00   .00  10072.50


   239.65  -65.52  -90.43 .1400E-07   28.00   .00  10087.50


   239.05  -65.62  -90.50 .1400E-07   28.00   .00  10102.50


   238.47  -65.71  -90.57 .1400E-07   28.00   .00  10117.50


   237.88  -65.81  -90.65 .1400E-07   28.00   .00  10132.50


   237.29  -65.91  -90.72 .1400E-07   28.00   .00  10147.50


   236.70  -66.01  -90.79 .1400E-07   28.00   .00  10162.50


   236.12  -66.10  -90.86 .1400E-07   28.00   .00  10177.50


   235.53  -66.20  -90.94 .1400E-07   28.00   .00  10192.50


   234.95  -66.30  -91.01 .1400E-07   28.00   .00  10207.50


   234.37  -66.40  -91.08 .1400E-07   28.00   .00  10222.50


   233.79  -66.50  -91.15 .1400E-07   28.00   .00  10237.50


   233.21  -66.59  -91.23 .1400E-07   28.00   .00  10252.50


   232.63  -66.69  -91.30 .1400E-07   28.00   .00  10267.50


   232.06  -66.79  -91.37 .1400E-07   28.00   .00  10282.50


   231.48  -66.89  -91.44 .1400E-07   28.00   .00  10297.50


   230.91  -66.98  -91.52 .1400E-07   28.00   .00  10312.50


   230.33  -67.08  -91.59 .1400E-07   28.00   .00  10327.50


   229.76  -67.18  -91.66 .1400E-07   28.00   .00  10342.50


   229.19  -67.27  -91.73 .1400E-07   28.00   .00  10357.50


   228.62  -67.37  -91.81 .1400E-07   28.00   .00  10372.50


   228.05  -67.47  -91.88 .1400E-07   28.00   .00  10387.50


   227.48  -67.57  -91.95 .1400E-07   28.00   .00  10402.50


   226.92  -67.66  -92.02 .1400E-07   28.00   .00  10417.50


   226.35  -67.76  -92.10 .1400E-07   28.00   .00  10432.50


   225.79  -67.86  -92.17 .1400E-07   28.00   .00  10447.50


   225.22  -67.96  -92.24 .1400E-07   28.00   .00  10462.50


   224.66  -68.06  -92.31 .1400E-07   28.00   .00  10477.50


   224.10  -68.15  -92.39 .1400E-07   28.00   .00  10492.50


   223.54  -68.25  -92.46 .1400E-07   28.00   .00  10507.50


   222.98  -68.35  -92.53 .1400E-07   28.00   .00  10522.50


   222.43  -68.45  -92.61 .1400E-07   28.00   .00  10537.50


   221.87  -68.54  -92.68 .1400E-07   28.00   .00  10552.50


   221.31  -68.64  -92.75 .1400E-07   28.00   .00  10567.50


   220.76  -68.74  -92.82 .1400E-07   28.00   .00  10582.50


   220.21  -68.83  -92.90 .1400E-07   28.00   .00  10597.50


   219.66  -68.93  -92.97 .1400E-07   28.00   .00  10612.50


   219.10  -69.03  -93.04 .1400E-07   28.00   .00  10627.50


   218.56  -69.13  -93.11 .1400E-07   28.00   .00  10642.50


   218.01  -69.23  -93.19 .1400E-07   28.00   .00  10657.50


   217.46  -69.32  -93.26 .1400E-07   28.00   .00  10672.50


   216.91  -69.42  -93.33 .1400E-07   28.00   .00  10687.50


   216.37  -69.52  -93.41 .1400E-07   28.00   .00  10702.50


   215.82  -69.62  -93.48 .1400E-07   28.00   .00  10717.50


   215.28  -69.71  -93.55 .1400E-07   28.00   .00  10732.50


   214.74  -69.81  -93.62 .1400E-07   28.00   .00  10747.50


   214.20  -69.91  -93.70 .1400E-07   28.00   .00  10762.50


   213.66  -70.01  -93.77 .1400E-07   28.00   .00  10777.50


   213.12  -70.10  -93.84 .1400E-07   28.00   .00  10792.50


   212.58  -70.20  -93.92 .1400E-07   28.00   .00  10807.50


   212.05  -70.30  -93.99 .1400E-07   28.00   .00  10822.50


   211.51  -70.39  -94.06 .1400E-07   28.00   .00  10837.50


   210.98  -70.49  -94.13 .1400E-07   28.00   .00  10852.50


   210.45  -70.59  -94.21 .1400E-07   28.00   .00  10867.50


   209.91  -70.69  -94.28 .1400E-07   28.00   .00  10882.50


   209.38  -70.79  -94.35 .1400E-07   28.00   .00  10897.50


   208.85  -70.88  -94.43 .1400E-07   28.00   .00  10912.50


   208.32  -70.98  -94.50 .1400E-07   28.00   .00  10927.50


   207.80  -71.08  -94.57 .1400E-07   28.00   .00  10942.50


   207.27  -71.18  -94.65 .1400E-07   28.00   .00  10957.50


   206.75  -71.27  -94.72 .1400E-07   28.00   .00  10972.50


   206.22  -71.37  -94.79 .1400E-07   28.00   .00  10987.50


   205.70  -71.47  -94.86 .1400E-07   28.00   .00  11002.50


   205.18  -71.57  -94.94 .1400E-07   28.00   .00  11017.50


   204.65  -71.66  -95.01 .1400E-07   28.00   .00  11032.50


   204.13  -71.76  -95.08 .1400E-07   28.00   .00  11047.50


   203.62  -71.86  -95.16 .1400E-07   28.00   .00  11062.50


   203.10  -71.96  -95.23 .1400E-07   28.00   .00  11077.50


   202.58  -72.05  -95.30 .1400E-07   28.00   .00  11092.50


   202.07  -72.15  -95.38 .1400E-07   28.00   .00  11107.50


   201.55  -72.25  -95.45 .1400E-07   28.00   .00  11122.50


   201.04  -72.35  -95.52 .1400E-07   28.00   .00  11137.50


   200.52  -72.44  -95.60 .1400E-07   28.00   .00  11152.50


   200.01  -72.54  -95.67 .1400E-07   28.00   .00  11167.50


   199.50  -72.64  -95.74 .1400E-07   28.00   .00  11182.50


   198.99  -72.74  -95.81 .1400E-07   28.00   .00  11197.50


   198.49  -72.83  -95.89 .1400E-07   28.00   .00  11212.50


   197.98  -72.93  -95.96 .1400E-07   28.00   .00  11227.50


   197.47  -73.03  -96.03 .1400E-07   28.00   .00  11242.50


   196.97  -73.13  -96.11 .1400E-07   28.00   .00  11257.50


   196.46  -73.22  -96.18 .1400E-07   28.00   .00  11272.50


   195.96  -73.32  -96.25 .1400E-07   28.00   .00  11287.50


   195.46  -73.42  -96.33 .1400E-07   28.00   .00  11302.50


   194.96  -73.51  -96.40 .1400E-07   28.00   .00  11317.50


   194.46  -73.61  -96.47 .1400E-07   28.00   .00  11332.50


   193.96  -73.71  -96.55 .1400E-07   28.00   .00  11347.50


   193.46  -73.81  -96.62 .1400E-07   28.00   .00  11362.50


   192.96  -73.90  -96.69 .1400E-07   28.00   .00  11377.50


   192.47  -74.00  -96.77 .1400E-07   28.00   .00  11392.50


   191.97  -74.10  -96.84 .1400E-07   28.00   .00  11407.50


   191.48  -74.20  -96.91 .1400E-07   28.00   .00  11422.50


   190.99  -74.29  -96.99 .1400E-07   28.00   .00  11437.50


   190.49  -74.39  -97.06 .1400E-07   28.00   .00  11452.50


   190.00  -74.49  -97.13 .1400E-07   28.00   .00  11467.50


   189.51  -74.59  -97.21 .1400E-07   28.00   .00  11482.50


   189.03  -74.69  -97.28 .1400E-07   28.00   .00  11497.50


   188.54  -74.78  -97.35 .1400E-07   28.00   .00  11512.50


   188.05  -74.88  -97.43 .1400E-07   28.00   .00  11527.50


   187.57  -74.98  -97.50 .1400E-07   28.00   .00  11542.50


   187.08  -75.07  -97.57 .1400E-07   28.00   .00  11557.50


   186.60  -75.17  -97.65 .1400E-07   28.00   .00  11572.50


   186.12  -75.27  -97.72 .1400E-07   28.00   .00  11587.50


   185.63  -75.37  -97.79 .1400E-07   28.00   .00  11602.50


   185.15  -75.46  -97.87 .1400E-07   28.00   .00  11617.50


   184.67  -75.56  -97.94 .1400E-07   28.00   .00  11632.50


   184.20  -75.66  -98.02 .1400E-07   28.00   .00  11647.50


   183.72  -75.76  -98.09 .1400E-07   28.00   .00  11662.50


   183.24  -75.86  -98.16 .1400E-07   28.00   .00  11677.50


   182.77  -75.95  -98.24 .1400E-07   28.00   .00  11692.50


   182.29  -76.05  -98.31 .1400E-07   28.00   .00  11707.50


   181.82  -76.15  -98.38 .1400E-07   28.00   .00  11722.50


   181.35  -76.25  -98.46 .1400E-07   28.00   .00  11737.50


   180.87  -76.34  -98.53 .1400E-07   28.00   .00  11752.50


   180.40  -76.44  -98.60 .1400E-07   28.00   .00  11767.50


   179.93  -76.54  -98.68 .1400E-07   28.00   .00  11782.50


   179.47  -76.63  -98.75 .1400E-07   28.00   .00  11797.50


   179.00  -76.73  -98.82 .1400E-07   28.00   .00  11812.50


   178.53  -76.83  -98.90 .1400E-07   28.00   .00  11827.50


   178.07  -76.93  -98.97 .1400E-07   28.00   .00  11842.50


   177.60  -77.02  -99.05 .1400E-07   28.00   .00  11857.50


   177.14  -77.12  -99.12 .1400E-07   28.00   .00  11872.50


   176.68  -77.22  -99.19 .1400E-07   28.00   .00  11887.50


   176.21  -77.32  -99.27 .1400E-07   28.00   .00  11902.50


   175.75  -77.42  -99.34 .1400E-07   28.00   .00  11917.50


   175.29  -77.51  -99.41 .1400E-07   28.00   .00  11932.50


   174.84  -77.61  -99.49 .1400E-07   28.00   .00  11947.50


   174.38  -77.71  -99.56 .1400E-07   28.00   .00  11962.50


   173.92  -77.81  -99.64 .1400E-07   28.00   .00  11977.50


   173.46  -77.90  -99.71 .1400E-07   28.00   .00  11992.50


   173.01  -77.90  -99.71 .1400E-07   28.00   .00  12007.50


   172.56  -77.90  -99.71 .1400E-07   28.00   .00  12022.50


   172.10  -77.90  -99.71 .1400E-07   28.00   .00  12037.50


   171.65  -77.90  -99.71 .1400E-07   28.00   .00  12052.50


   171.20  -77.90  -99.71 .1400E-07   28.00   .00  12067.50


   170.75  -77.90  -99.71 .1400E-07   28.00   .00  12082.50


   170.31  -77.90  -99.71 .1400E-07   28.00   .00  12097.50


   169.86  -77.90  -99.71 .1400E-07   28.00   .00  12112.50


   169.42  -77.90  -99.71 .1400E-07   28.00   .00  12127.50


   168.97  -77.90  -99.71 .1400E-07   28.00   .00  12142.50


   168.53  -77.90  -99.71 .1400E-07   28.00   .00  12157.50


   168.09  -77.90  -99.71 .1400E-07   28.00   .00  12172.50


   167.65  -77.90  -99.71 .1400E-07   28.00   .00  12187.50


   167.21  -77.90  -99.71 .1400E-07   28.00   .00  12202.50


   166.77  -77.90  -99.71 .1400E-07   28.00   .00  12217.50


   166.33  -77.90  -99.71 .1400E-07   28.00   .00  12232.50


   165.90  -77.90  -99.71 .1400E-07   28.00   .00  12247.50


   165.46  -77.90  -99.71 .1400E-07   28.00   .00  12262.50


   165.03  -77.90  -99.71 .1400E-07   28.00   .00  12277.50


   164.59  -77.90  -99.71 .1400E-07   28.00   .00  12292.50


   164.16  -77.90  -99.71 .1400E-07   28.00   .00  12307.50


   163.73  -77.90  -99.71 .1400E-07   28.00   .00  12322.50


   163.30  -77.90  -99.71 .1400E-07   28.00   .00  12337.50


   162.88  -77.90  -99.71 .1400E-07   28.00   .00  12352.50


   162.45  -77.90  -99.71 .1400E-07   28.00   .00  12367.50


   162.02  -77.90  -99.71 .1400E-07   28.00   .00  12382.50


   161.60  -77.90  -99.71 .1400E-07   28.00   .00  12397.50


   161.17  -77.90  -99.71 .1400E-07   28.00   .00  12412.50


   160.75  -77.90  -99.71 .1400E-07   28.00   .00  12427.50


   160.33  -77.90  -99.71 .1400E-07   28.00   .00  12442.50


   159.91  -77.90  -99.71 .1400E-07   28.00   .00  12457.50


   159.49  -77.90  -99.71 .1400E-07   28.00   .00  12472.50


   159.07  -77.90  -99.71 .1400E-07   28.00   .00  12487.50


   158.66  -77.90  -99.71 .1400E-07   28.00   .00  12502.50


   158.24  -77.90  -99.71 .1400E-07   28.00   .00  12517.50


   157.83  -77.90  -99.71 .1400E-07   28.00   .00  12532.50


   157.41  -77.90  -99.71 .1400E-07   28.00   .00  12547.50


   157.00  -77.90  -99.71 .1400E-07   28.00   .00  12562.50


   156.59  -77.90  -99.71 .1400E-07   28.00   .00  12577.50


   156.18  -77.90  -99.71 .1400E-07   28.00   .00  12592.50


   155.77  -77.90  -99.71 .1400E-07   28.00   .00  12607.50


   155.36  -77.90  -99.71 .1400E-07   28.00   .00  12622.50


   154.95  -77.90  -99.71 .1400E-07   28.00   .00  12637.50


   154.55  -77.90  -99.71 .1400E-07   28.00   .00  12652.50


   154.14  -77.90  -99.71 .1400E-07   28.00   .00  12667.50


   153.74  -77.90  -99.71 .1400E-07   28.00   .00  12682.50


   153.33  -77.90  -99.71 .1400E-07   28.00   .00  12697.50


   152.93  -77.90  -99.71 .1400E-07   28.00   .00  12712.50


   152.53  -77.90  -99.71 .1400E-07   28.00   .00  12727.50


   152.13  -77.90  -99.71 .1400E-07   28.00   .00  12742.50


   151.73  -77.90  -99.71 .1400E-07   28.00   .00  12757.50


   151.33  -77.90  -99.71 .1400E-07   28.00   .00  12772.50


   150.94  -77.90  -99.71 .1400E-07   28.00   .00  12787.50


   150.54  -77.90  -99.71 .1400E-07   28.00   .00  12802.50


   150.15  -77.90  -99.71 .1400E-07   28.00   .00  12817.50


   149.75  -77.90  -99.71 .1400E-07   28.00   .00  12832.50


   149.36  -77.90  -99.71 .1400E-07   28.00   .00  12847.50


   148.97  -77.90  -99.71 .1400E-07   28.00   .00  12862.50


   148.58  -77.90  -99.71 .1400E-07   28.00   .00  12877.50


   148.19  -77.90  -99.71 .1400E-07   28.00   .00  12892.50


   147.80  -77.90  -99.71 .1400E-07   28.00   .00  12907.50


   147.41  -77.90  -99.71 .1400E-07   28.00   .00  12922.50


   147.03  -77.90  -99.71 .1400E-07   28.00   .00  12937.50


   146.64  -77.90  -99.71 .1400E-07   28.00   .00  12952.50


   146.26  -77.90  -99.71 .1400E-07   28.00   .00  12967.50


   145.87  -77.90  -99.71 .1400E-07   28.00   .00  12982.50


   145.49  -77.90  -99.71 .1400E-07   28.00   .00  12997.50


   145.11  -77.90  -99.71 .1400E-07   28.00   .00  13012.50


   144.73  -77.90  -99.71 .1400E-07   28.00   .00  13027.50


   144.35  -77.90  -99.71 .1400E-07   28.00   .00  13042.50


   143.97  -77.90  -99.71 .1400E-07   28.00   .00  13057.50


   143.60  -77.90  -99.71 .1400E-07   28.00   .00  13072.50


   143.22  -77.90  -99.71 .1400E-07   28.00   .00  13087.50


   142.84  -77.90  -99.71 .1400E-07   28.00   .00  13102.50


   142.47  -77.90  -99.71 .1400E-07   28.00   .00  13117.50


   142.10  -77.90  -99.71 .1400E-07   28.00   .00  13132.50


   141.72  -77.90  -99.71 .1400E-07   28.00   .00  13147.50


   141.35  -77.90  -99.71 .1400E-07   28.00   .00  13162.50


   140.98  -77.90  -99.71 .1400E-07   28.00   .00  13177.50


   140.61  -77.90  -99.71 .1400E-07   28.00   .00  13192.50


   140.24  -77.90  -99.71 .1400E-07   28.00   .00  13207.50


   139.88  -77.90  -99.71 .1400E-07   28.00   .00  13222.50


   139.51  -77.90  -99.71 .1400E-07   28.00   .00  13237.50


   139.14  -77.90  -99.71 .1400E-07   28.00   .00  13252.50


   138.78  -77.90  -99.71 .1400E-07   28.00   .00  13267.50


   138.42  -77.90  -99.71 .1400E-07   28.00   .00  13282.50


   138.05  -77.90  -99.71 .1400E-07   28.00   .00  13297.50


   137.69  -77.90  -99.71 .1400E-07   28.00   .00  13312.50


   137.33  -77.90  -99.71 .1400E-07   28.00   .00  13327.50


   136.97  -77.90  -99.71 .1400E-07   28.00   .00  13342.50


   136.61  -77.90  -99.71 .1400E-07   28.00   .00  13357.50


   136.25  -77.90  -99.71 .1400E-07   28.00   .00  13372.50


   135.90  -77.90  -99.71 .1400E-07   28.00   .00  13387.50


   135.54  -77.90  -99.71 .1400E-07   28.00   .00  13402.50


   135.18  -77.90  -99.71 .1400E-07   28.00   .00  13417.50


   134.83  -77.90  -99.71 .1400E-07   28.00   .00  13432.50


   134.48  -77.90  -99.71 .1400E-07   28.00   .00  13447.50


   134.12  -77.90  -99.71 .1400E-07   28.00   .00  13462.50


   133.77  -77.90  -99.71 .1400E-07   28.00   .00  13477.50


   133.42  -77.90  -99.71 .1400E-07   28.00   .00  13492.50


   133.07  -77.90  -99.71 .1400E-07   28.00   .00  13507.50


   132.72  -77.90  -99.71 .1400E-07   28.00   .00  13522.50


   132.37  -77.90  -99.71 .1400E-07   28.00   .00  13537.50


   132.03  -77.90  -99.71 .1400E-07   28.00   .00  13552.50


   131.68  -77.90  -99.71 .1400E-07   28.00   .00  13567.50


   131.34  -77.90  -99.71 .1400E-07   28.00   .00  13582.50


   130.99  -77.90  -99.71 .1400E-07   28.00   .00  13597.50


   130.65  -77.90  -99.71 .1400E-07   28.00   .00  13612.50


   130.31  -77.90  -99.71 .1400E-07   28.00   .00  13627.50


   129.97  -77.90  -99.71 .1400E-07   28.00   .00  13642.50


   129.62  -77.90  -99.71 .1400E-07   28.00   .00  13657.50


   129.28  -77.90  -99.71 .1400E-07   28.00   .00  13672.50


   128.95  -77.90  -99.71 .1400E-07   28.00   .00  13687.50


   128.61  -77.90  -99.71 .1400E-07   28.00   .00  13702.50


   128.27  -77.90  -99.71 .1400E-07   28.00   .00  13717.50


   127.93  -77.90  -99.71 .1400E-07   28.00   .00  13732.50


   127.60  -77.90  -99.71 .1400E-07   28.00   .00  13747.50


   127.26  -77.90  -99.71 .1400E-07   28.00   .00  13762.50


   126.93  -77.90  -99.71 .1400E-07   28.00   .00  13777.50


   126.60  -77.90  -99.71 .1400E-07   28.00   .00  13792.50


   126.27  -77.90  -99.71 .1400E-07   28.00   .00  13807.50


   125.94  -77.90  -99.71 .1400E-07   28.00   .00  13822.50


   125.61  -77.90  -99.71 .1400E-07   28.00   .00  13837.50


   125.28  -77.90  -99.71 .1400E-07   28.00   .00  13852.50


   124.95  -77.90  -99.71 .1400E-07   28.00   .00  13867.50


   124.62  -77.90  -99.71 .1400E-07   28.00   .00  13882.50


   124.29  -77.90  -99.71 .1400E-07   28.00   .00  13897.50


   123.97  -77.90  -99.71 .1400E-07   28.00   .00  13912.50


   123.64  -77.90  -99.71 .1400E-07   28.00   .00  13927.50


   123.32  -77.90  -99.71 .1400E-07   28.00   .00  13942.50


   123.00  -77.90  -99.71 .1400E-07   28.00   .00  13957.50


   122.67  -77.90  -99.71 .1400E-07   28.00   .00  13972.50


   122.35  -77.90  -99.71 .1400E-07   28.00   .00  13987.50


   122.03  -77.90  -99.71 .1400E-07   28.00   .00  14002.50


   121.71  -77.90  -99.71 .1400E-07   28.00   .00  14017.50


   121.39  -77.90  -99.71 .1400E-07   28.00   .00  14032.50


   121.07  -77.90  -99.71 .1400E-07   28.00   .00  14047.50


   120.76  -77.90  -99.71 .1400E-07   28.00   .00  14062.50


   120.44  -77.90  -99.71 .1400E-07   28.00   .00  14077.50


   120.12  -77.90  -99.71 .1400E-07   28.00   .00  14092.50


   119.81  -77.90  -99.71 .1400E-07   28.00   .00  14107.50


   119.50  -77.90  -99.71 .1400E-07   28.00   .00  14122.50


   119.18  -77.90  -99.71 .1400E-07   28.00   .00  14137.50


   118.87  -77.90  -99.71 .1400E-07   28.00   .00  14152.50


   118.56  -77.90  -99.71 .1400E-07   28.00   .00  14167.50


   118.25  -77.90  -99.71 .1400E-07   28.00   .00  14182.50


   117.94  -77.90  -99.71 .1400E-07   28.00   .00  14197.50


   117.63  -77.90  -99.71 .1400E-07   28.00   .00  14212.50


   117.32  -77.90  -99.71 .1400E-07   28.00   .00  14227.50


   117.01  -77.90  -99.71 .1400E-07   28.00   .00  14242.50


   116.71  -77.90  -99.71 .1400E-07   28.00   .00  14257.50


   116.40  -77.90  -99.71 .1400E-07   28.00   .00  14272.50


   116.09  -77.90  -99.71 .1400E-07   28.00   .00  14287.50


   115.79  -77.90  -99.71 .1400E-07   28.00   .00  14302.50


   115.49  -77.90  -99.71 .1400E-07   28.00   .00  14317.50


   115.18  -77.90  -99.71 .1400E-07   28.00   .00  14332.50


   114.88  -77.90  -99.71 .1400E-07   28.00   .00  14347.50


   114.58  -77.90  -99.71 .1400E-07   28.00   .00  14362.50


   114.28  -77.90  -99.71 .1400E-07   28.00   .00  14377.50


   113.98  -77.90  -99.71 .1400E-07   28.00   .00  14392.50


   113.68  -77.90  -99.71 .1400E-07   28.00   .00  14407.50


   113.38  -77.90  -99.71 .1400E-07   28.00   .00  14422.50


   113.09  -77.90  -99.71 .1400E-07   28.00   .00  14437.50


   112.79  -77.90  -99.71 .1400E-07   28.00   .00  14452.50


   112.50  -77.90  -99.71 .1400E-07   28.00   .00  14467.50


   112.20  -77.90  -99.71 .1400E-07   28.00   .00  14482.50


   111.91  -77.90  -99.71 .1400E-07   28.00   .00  14497.50


   111.61  -77.90  -99.71 .1400E-07   28.00   .00  14512.50


   111.32  -77.90  -99.71 .1400E-07   28.00   .00  14527.50


   111.03  -77.90  -99.71 .1400E-07   28.00   .00  14542.50


   110.74  -77.90  -99.71 .1400E-07   28.00   .00  14557.50


   110.45  -77.90  -99.71 .1400E-07   28.00   .00  14572.50


   110.16  -77.90  -99.71 .1400E-07   28.00   .00  14587.50


   109.87  -77.90  -99.71 .1400E-07   28.00   .00  14602.50


   109.58  -77.90  -99.71 .1400E-07   28.00   .00  14617.50


   109.29  -77.90  -99.71 .1400E-07   28.00   .00  14632.50


   109.01  -77.90  -99.71 .1400E-07   28.00   .00  14647.50


   108.72  -77.90  -99.71 .1400E-07   28.00   .00  14662.50


   108.44  -77.90  -99.71 .1400E-07   28.00   .00  14677.50


   108.15  -77.90  -99.71 .1400E-07   28.00   .00  14692.50


   107.87  -77.90  -99.71 .1400E-07   28.00   .00  14707.50


   107.59  -77.90  -99.71 .1400E-07   28.00   .00  14722.50


   107.30  -77.90  -99.71 .1400E-07   28.00   .00  14737.50


   107.02  -77.90  -99.71 .1400E-07   28.00   .00  14752.50


   106.74  -77.90  -99.71 .1400E-07   28.00   .00  14767.50


   106.46  -77.90  -99.71 .1400E-07   28.00   .00  14782.50


   106.18  -77.90  -99.71 .1400E-07   28.00   .00  14797.50


   105.91  -77.90  -99.71 .1400E-07   28.00   .00  14812.50


   105.63  -77.90  -99.71 .1400E-07   28.00   .00  14827.50


   105.35  -77.90  -99.71 .1400E-07   28.00   .00  14842.50


   105.07  -77.90  -99.71 .1400E-07   28.00   .00  14857.50


   104.80  -77.90  -99.71 .1400E-07   28.00   .00  14872.50


   104.52  -77.90  -99.71 .1400E-07   28.00   .00  14887.50


   104.25  -77.90  -99.71 .1400E-07   28.00   .00  14902.50


   103.98  -77.90  -99.71 .1400E-07   28.00   .00  14917.50


   103.70  -77.90  -99.71 .1400E-07   28.00   .00  14932.50


   103.43  -77.90  -99.71 .1400E-07   28.00   .00  14947.50


   103.16  -77.90  -99.71 .1400E-07   28.00   .00  14962.50


   102.89  -77.90  -99.71 .1400E-07   28.00   .00  14977.50


   102.62  -77.90  -99.71 .1400E-07   28.00   .00  14992.50


   102.35  -77.90  -99.71 .1400E-07   28.00   .00  15007.50


   102.08  -77.90  -99.71 .1400E-07   28.00   .00  15022.50


   101.82  -77.90  -99.71 .1400E-07   28.00   .00  15037.50


   101.55  -77.90  -99.71 .1400E-07   28.00   .00  15052.50


   101.28  -77.90  -99.71 .1400E-07   28.00   .00  15067.50



